"UnLitGeneric"
{
	"$basetexture"		"vcmod/lights/3d/square_texture"
	"$nocull" 1
	"$additive" 1
	"$vertexalpha" 1
	"$vertexcolor" 1
}
// Copyright © 2020 VCMod (freemmaann). All Rights Reserved. if you have any complaints or ideas contact me: steam - steamcommunity.com/id/freemmaann/ or email - freemmaann@gmail.com.
